501 4026 238
6977 241 262
7900 7176 239
3609 7338 262
5775 9725 262
5867 3004 238
7112 6008 262
4307 7160 262
7496 4767 262
6013 8290 262
2905 1540 209
2666 4976 238
2812 9884 262
5047 8024 262
903 6664 262
8616 6185 257
3145 3730 238
2780 1026 209
6369 5937 262
1381 8181 262
9357 1106 262
5621 4512 236
4525 7825 262
3197 8270 262
8367 3324 262
1023 9494 262
751 9252 262
8886 9992 260
9559 3714 262
9553 5364 262
1376 2669 209
898 3033 217
2103 5830 238
446 2232 183
7417 9477 260
8093 8009 190
556 5064 238
6084 5905 187
7353 1685 262
3643 3762 238
6950 384 262
8901 4694 262
1222 7265 262
4230 9865 262
2186 9342 262
5200 2811 238
2056 5308 238
4456 2899 238
59 4388 238
2683 9561 262
9551 6691 260
6415 7785 257
4233 183 238
7660 5836 262
7289 4197 262
34 4725 238
5138 2293 238
9366 4566 262
4597 7085 262
9700 552 262
8229 5979 262
5000 3346 238
9381 9504 198
4630 3592 238
9624 760 262
9201 5279 262
8890 1928 262
4126 2167 238
5095 2920 238
7904 7201 239
1885 8968 262
332 1342 182
7129 9982 260
4559 5458 210
1432 138 182
9392 1480 262
9418 5087 262
2992 8338 262
5630 9849 262
4292 1772 238
6388 4639 262
4278 8021 262
2009 310 182
5401 1493 238
6157 2278 238
7159 5733 262
8485 9640 260
5974 7219 262
6200 7346 257
7525 5024 262
8877 820 262
4591 7336 262
3404 264 217
148 6763 262
2812 5177 238
6131 2694 238
5160 5543 205
6245 5345 262
1235 4135 238
2981 974 217
2936 8400 262
7570 365 262
3612 8606 262
7082 1119 262
9979 5245 262
1917 310 182
3262 3825 238
3565 1220 217
8216 6923 257
2239 8128 262
7467 946 262
3939 7338 262
7837 2431 262
6096 7654 262
6853 3413 262
6837 5330 262
2919 9659 262
4468 1580 238
5617 825 238
9955 2842 262
2087 4660 238
6432 8326 257
4595 1758 238
63 1804 182
2630 8402 262
5482 6330 262
9269 5180 262
2829 6939 262
6315 6274 156
3180 5599 238
6867 1240 262
3369 2721 217
7723 3922 262
3963 7280 262
898 2824 209
7069 189 262
6451 9155 257
1224 7849 262
1694 1607 180
9038 7694 252
2417 6963 262
5032 603 238
1227 1492 177
7770 672 262
1133 439 179
7156 3352 262
2927 6987 262
7732 5890 262
9871 1422 262
790 2637 209
5953 2613 238
640 7087 262
9069 1977 262
4670 5433 210
50 9750 262
4909 6531 262
5702 9382 262
5178 9975 262
9442 3011 262
3581 2827 217
4739 1009 238
8092 1979 262
1372 474 182
1650 2049 180
8703 7899 252
9250 3166 262
7292 2849 262
7325 1508 262
483 9781 262
9032 1090 262
5833 899 238
4109 4511 215
5232 679 238
8959 5441 262
7073 43 262
792 1738 182
2310 970 183
4691 821 238
5087 6475 262
1194 2828 209
2591 665 209
9341 7312 260
8312 7193 252
4489 473 238
5825 98 238
1178 739 182
9275 7136 260
8015 1012 262
6042 2659 238
6910 7926 257
827 3970 238
595 3862 238
3589 4635 238
7262 4422 262
7450 492 262
6391 6833 244
9882 4214 262
3601 7022 262
5451 757 238
2553 6420 262
